{
	"trainer": {
		"file_prefix_store": "08",
		"file_prefix_load": null,
		"shuffle_flag": true,
		"avg_flag": false
	,
		"feature_selector": {
			"unigram_basis": true,
			"bigram_basis": true,
			"other_basis": true,
			"single_lemma": false,
			"single_neighbor": false,
			"bigram_lemma": false,
			"bpos": true,
			"root": false,

			"unigram_morph": false,
			"single_morph": false,
			"bigram_morph": false

		}
	}
}