{
	"trainer": {
		"file_prefix_store": "24-2",
		"file_prefix_load": "de_full_24",
		"shuffle_flag": true,
		"avg_flag": false
	,
		"feature_selector": {
			"unigram_basis": true,
			"bigram_basis": true,
			"other_basis": true,
			"single_lemma": true,
			"single_neighbor": true,
			"bigram_lemma": true,
			"bpos": true,
			"root": true,

			"unigram_morph": true,
			"single_morph": true,
			"bigram_morph": true

		}
	}
}